{
  "height": 20,
  "infinite": false,
  "layers": [
    {
      "data": [
        38,
        38,
        38,
        38,
        38,
        38,
        38,
        38,
        38,
        38,
        38,
        38,
        38,
        38,
        38,
        38,
        38,
        38,
        38,
        38,
        38,
        38,
        38,
        38,
        38,
        38,
        38,
        38,
        38,
        38,
        38,
        38,
        38,
        38,
        38,
        38,
        38,
        38,
        38,
        38,
        38,
        38,
        38,
        38,
        38,
        38,
        38,
        38,
        38,
        38,
        38,
        38,
        38,
        38,
        38,
        38,
        41,
        57,
        41,
        57,
        41,
        57,
        41,
        57,
        41,
        57,
        38,
        38,
        38,
        38,
        38,
        38,
        38,
        38,
        38,
        38,
        38,
        38,
        38,
        38,
        38,
        69,
        69,
        69,
        69,
        69,
        69,
        69,
        69,
        69,
        69,
        69,
        69,
        69,
        69,
        69,
        69,
        69,
        69,
        69,
        69,
        69,
        69,
        69,
        69,
        69,
        69,
        69,
        69,
        69,
        69,
        69,
        69,
        38,
        38,
        38,
        38,
        38,
        38,
        38,
        38,
        28,
        29,
        30,
        31,
        28,
        29,
        30,
        31,
        28,
        29,
        30,
        31,
        28,
        29,
        30,
        32,
        26,
        0,
        0,
        0,
        0,
        0,
        26,
        27,
        28,
        29,
        30,
        31,
        28,
        29,
        30,
        28,
        38,
        38,
        38,
        38,
        38,
        38,
        38,
        38,
        28,
        29,
        30,
        31,
        28,
        29,
        30,
        31,
        28,
        29,
        30,
        31,
        28,
        29,
        48,
        42,
        42,
        0,
        0,
        0,
        0,
        0,
        42,
        42,
        43,
        29,
        30,
        31,
        28,
        29,
        30,
        28,
        38,
        38,
        38,
        41,
        57,
        38,
        38,
        38,
        28,
        29,
        30,
        31,
        28,
        29,
        30,
        31,
        28,
        29,
        30,
        31,
        28,
        29,
        64,
        58,
        58,
        0,
        0,
        0,
        0,
        0,
        58,
        59,
        28,
        29,
        30,
        31,
        28,
        29,
        30,
        31,
        28,
        29,
        28,
        29,
        30,
        40,
        38,
        38,
        28,
        29,
        30,
        31,
        28,
        29,
        30,
        31,
        28,
        29,
        30,
        31,
        28,
        29,
        30,
        80,
        74,
        0,
        0,
        0,
        0,
        0,
        74,
        75,
        28,
        29,
        30,
        31,
        28,
        29,
        30,
        31,
        28,
        29,
        28,
        29,
        30,
        56,
        38,
        38,
        69,
        69,
        69,
        69,
        69,
        69,
        69,
        69,
        69,
        69,
        69,
        69,
        69,
        69,
        69,
        69,
        69,
        69,
        69,
        69,
        69,
        69,
        69,
        69,
        69,
        69,
        69,
        69,
        69,
        69,
        69,
        69,
        69,
        69,
        69,
        69,
        69,
        56,
        38,
        38,
        38,
        38,
        38,
        38,
        38,
        38,
        38,
        38,
        38,
        38,
        38,
        38,
        38,
        38,
        38,
        41,
        57,
        41,
        57,
        41,
        57,
        41,
        57,
        41,
        57,
        38,
        38,
        38,
        38,
        38,
        38,
        38,
        38,
        38,
        71,
        72,
        73,
        38,
        38,
        38,
        38,
        38,
        38,
        38,
        38,
        38,
        38,
        38,
        38,
        38,
        38,
        38,
        38,
        38,
        38,
        38,
        38,
        38,
        38,
        38,
        38,
        38,
        38,
        38,
        38,
        38,
        38,
        38,
        38,
        38,
        38,
        38,
        38,
        38,
        71,
        72,
        73,
        38,
        38,
        0,
        0,
        0,
        0,
        0,
        0,
        0,
        0,
        0,
        0,
        0,
        0,
        0,
        0,
        0,
        0,
        0,
        0,
        0,
        0,
        0,
        0,
        0,
        0,
        0,
        0,
        0,
        0,
        0,
        0,
        0,
        0,
        0,
        0,
        0,
        0,
        0,
        0,
        0,
        0,
        0,
        0,
        0,
        0,
        0,
        0,
        0,
        0,
        0,
        0,
        0,
        0,
        0,
        0,
        0,
        0,
        0,
        0,
        0,
        0,
        0,
        0,
        0,
        0,
        0,
        0,
        0,
        0,
        0,
        0,
        0,
        0,
        0,
        0,
        0,
        0,
        0,
        0,
        0,
        0,
        0,
        69,
        69,
        69,
        69,
        69,
        69,
        69,
        69,
        69,
        69,
        69,
        69,
        69,
        69,
        69,
        69,
        69,
        69,
        69,
        69,
        69,
        69,
        69,
        69,
        69,
        69,
        69,
        69,
        69,
        69,
        69,
        69,
        38,
        38,
        0,
        0,
        0,
        0,
        0,
        0,
        60,
        61,
        62,
        63,
        60,
        61,
        62,
        63,
        60,
        61,
        62,
        63,
        60,
        61,
        62,
        63,
        60,
        61,
        62,
        63,
        60,
        61,
        62,
        63,
        60,
        61,
        62,
        63,
        60,
        61,
        60,
        60,
        38,
        38,
        0,
        0,
        0,
        0,
        0,
        0,
        28,
        29,
        30,
        31,
        28,
        29,
        30,
        31,
        28,
        29,
        30,
        31,
        28,
        29,
        30,
        31,
        28,
        29,
        30,
        31,
        28,
        29,
        30,
        31,
        28,
        29,
        30,
        31,
        28,
        29,
        28,
        28,
        38,
        38,
        0,
        0,
        0,
        0,
        0,
        0,
        28,
        29,
        30,
        31,
        28,
        29,
        30,
        31,
        28,
        29,
        30,
        31,
        28,
        29,
        30,
        31,
        28,
        29,
        30,
        31,
        28,
        29,
        30,
        31,
        28,
        29,
        30,
        31,
        28,
        29,
        28,
        29,
        30,
        31,
        0,
        0,
        0,
        0,
        0,
        0,
        76,
        77,
        78,
        79,
        76,
        77,
        78,
        79,
        76,
        77,
        78,
        79,
        76,
        77,
        78,
        79,
        76,
        77,
        78,
        79,
        76,
        77,
        78,
        79,
        76,
        77,
        78,
        79,
        76,
        77,
        76,
        77,
        78,
        79,
        0,
        0,
        0,
        0,
        0,
        0,
        69,
        69,
        69,
        69,
        69,
        69,
        69,
        69,
        69,
        69,
        69,
        69,
        69,
        69,
        69,
        69,
        69,
        69,
        69,
        69,
        69,
        69,
        69,
        69,
        69,
        69,
        69,
        69,
        69,
        69,
        69,
        69,
        69,
        69,
        0,
        0,
        0,
        0,
        0,
        0,
        0,
        0,
        0,
        0,
        0,
        0,
        0,
        0,
        0,
        0,
        0,
        0,
        0,
        0,
        0,
        0,
        0,
        0,
        0,
        0,
        0,
        0,
        0,
        0,
        0,
        0,
        0,
        0,
        0,
        0,
        0,
        0,
        0,
        0,
        0,
        0,
        0,
        0,
        0,
        0,
        0,
        0,
        0,
        0,
        0,
        0,
        0,
        0,
        0,
        0,
        0,
        0,
        0,
        0,
        0,
        0,
        0,
        0,
        0,
        0,
        0,
        0,
        0,
        0,
        0,
        0,
        0,
        0,
        0,
        0,
        0,
        0,
        0,
        0,
        0,
        0,
        0,
        0,
        0
      ],
      "height": 20,
      "name": "basic",
      "opacity": 1,
      "type": "tilelayer",
      "visible": true,
      "width": 40,
      "x": 0,
      "y": 0
    },
    {
      "data": [
        0,
        0,
        0,
        0,
        0,
        0,
        0,
        0,
        0,
        0,
        0,
        0,
        0,
        0,
        0,
        0,
        0,
        0,
        0,
        0,
        0,
        0,
        0,
        0,
        0,
        0,
        0,
        0,
        0,
        0,
        0,
        0,
        0,
        0,
        0,
        0,
        0,
        0,
        0,
        0,
        0,
        0,
        0,
        0,
        0,
        0,
        0,
        0,
        0,
        0,
        0,
        0,
        0,
        0,
        0,
        0,
        0,
        0,
        0,
        0,
        0,
        0,
        0,
        0,
        0,
        0,
        0,
        0,
        0,
        0,
        0,
        0,
        0,
        0,
        0,
        0,
        0,
        0,
        0,
        0,
        0,
        0,
        0,
        0,
        0,
        314,
        315,
        316,
        0,
        0,
        0,
        0,
        0,
        0,
        0,
        40,
        0,
        0,
        0,
        0,
        314,
        316,
        0,
        0,
        0,
        1,
        40,
        3,
        4,
        0,
        1,
        19,
        37,
        0,
        0,
        37,
        0,
        0,
        0,
        0,
        0,
        0,
        0,
        0,
        0,
        0,
        0,
        0,
        0,
        0,
        0,
        0,
        0,
        0,
        0,
        56,
        0,
        0,
        0,
        0,
        0,
        0,
        0,
        0,
        0,
        0,
        56,
        0,
        0,
        0,
        0,
        35,
        37,
        0,
        0,
        37,
        0,
        0,
        0,
        0,
        0,
        0,
        0,
        0,
        0,
        0,
        0,
        0,
        133,
        134,
        0,
        109,
        0,
        0,
        0,
        40,
        74,
        42,
        0,
        0,
        0,
        0,
        0,
        0,
        0,
        0,
        40,
        0,
        0,
        0,
        0,
        109,
        37,
        0,
        0,
        37,
        0,
        0,
        0,
        0,
        0,
        0,
        85,
        86,
        0,
        0,
        0,
        0,
        149,
        150,
        0,
        0,
        0,
        0,
        0,
        56,
        0,
        0,
        0,
        0,
        0,
        0,
        0,
        0,
        0,
        0,
        56,
        0,
        0,
        0,
        0,
        0,
        0,
        0,
        0,
        314,
        315,
        316,
        0,
        0,
        0,
        0,
        0,
        0,
        0,
        0,
        0,
        0,
        164,
        165,
        0,
        0,
        0,
        167,
        168,
        40,
        0,
        0,
        0,
        0,
        0,
        0,
        0,
        0,
        0,
        0,
        40,
        0,
        0,
        0,
        0,
        0,
        0,
        0,
        0,
        0,
        0,
        0,
        0,
        0,
        0,
        97,
        98,
        99,
        100,
        0,
        0,
        0,
        161,
        162,
        163,
        164,
        165,
        166,
        166,
        56,
        0,
        0,
        0,
        0,
        0,
        0,
        0,
        0,
        0,
        0,
        56,
        0,
        97,
        98,
        99,
        100,
        97,
        98,
        100,
        0,
        0,
        0,
        0,
        0,
        0,
        0,
        0,
        0,
        0,
        0,
        0,
        0,
        0,
        0,
        0,
        0,
        0,
        0,
        0,
        0,
        0,
        0,
        0,
        0,
        0,
        0,
        0,
        0,
        0,
        0,
        0,
        0,
        0,
        0,
        0,
        0,
        0,
        0,
        0,
        0,
        0,
        0,
        0,
        0,
        0,
        0,
        0,
        0,
        0,
        0,
        0,
        0,
        0,
        0,
        0,
        0,
        0,
        0,
        0,
        0,
        0,
        0,
        0,
        0,
        0,
        0,
        0,
        0,
        0,
        0,
        0,
        0,
        0,
        0,
        0,
        0,
        0,
        0,
        0,
        0,
        0,
        0,
        0,
        0,
        38,
        38,
        38,
        38,
        38,
        38,
        38,
        38,
        38,
        38,
        38,
        38,
        38,
        38,
        38,
        38,
        38,
        38,
        38,
        38,
        38,
        38,
        38,
        38,
        38,
        38,
        38,
        38,
        38,
        38,
        38,
        38,
        38,
        38,
        38,
        71,
        72,
        73,
        38,
        38,
        38,
        38,
        38,
        38,
        38,
        38,
        38,
        38,
        38,
        38,
        38,
        38,
        38,
        38,
        38,
        38,
        38,
        38,
        38,
        38,
        38,
        38,
        38,
        38,
        38,
        38,
        38,
        38,
        38,
        38,
        38,
        38,
        38,
        38,
        38,
        71,
        72,
        73,
        38,
        38,
        38,
        127,
        0,
        0,
        0,
        314,
        315,
        316,
        0,
        0,
        0,
        0,
        0,
        0,
        0,
        0,
        0,
        0,
        0,
        0,
        0,
        0,
        0,
        0,
        314,
        315,
        316,
        0,
        0,
        0,
        0,
        128,
        37,
        0,
        0,
        71,
        72,
        73,
        38,
        38,
        38,
        0,
        0,
        0,
        0,
        0,
        0,
        0,
        0,
        0,
        0,
        0,
        0,
        197,
        230,
        230,
        230,
        230,
        230,
        198,
        0,
        0,
        0,
        0,
        0,
        0,
        0,
        0,
        0,
        0,
        0,
        0,
        37,
        0,
        0,
        71,
        72,
        73,
        38,
        38,
        38,
        0,
        0,
        0,
        0,
        0,
        0,
        0,
        0,
        0,
        0,
        109,
        0,
        213,
        230,
        230,
        230,
        230,
        230,
        214,
        0,
        0,
        0,
        0,
        0,
        0,
        0,
        0,
        0,
        0,
        0,
        109,
        37,
        0,
        0,
        71,
        72,
        73,
        38,
        38,
        38,
        0,
        0,
        0,
        0,
        0,
        0,
        0,
        0,
        0,
        0,
        0,
        0,
        0,
        0,
        0,
        0,
        0,
        0,
        0,
        0,
        0,
        0,
        0,
        0,
        0,
        0,
        0,
        0,
        0,
        0,
        0,
        0,
        0,
        0,
        71,
        72,
        73,
        38,
        38,
        38,
        0,
        0,
        0,
        0,
        0,
        0,
        0,
        0,
        0,
        0,
        0,
        0,
        0,
        0,
        204,
        205,
        204,
        205,
        0,
        0,
        0,
        0,
        0,
        0,
        0,
        0,
        0,
        0,
        0,
        0,
        0,
        0,
        0,
        0,
        71,
        72,
        73,
        38,
        38,
        38,
        143,
        0,
        0,
        0,
        0,
        0,
        0,
        201,
        202,
        202,
        202,
        202,
        203,
        217,
        220,
        221,
        220,
        221,
        0,
        217,
        201,
        202,
        202,
        202,
        202,
        203,
        0,
        0,
        0,
        0,
        0,
        0,
        0,
        0,
        71,
        72,
        73,
        38,
        38,
        38,
        38,
        38,
        38,
        38,
        38,
        38,
        38,
        38,
        38,
        38,
        38,
        38,
        38,
        38,
        38,
        38,
        38,
        38,
        38,
        38,
        38,
        38,
        38,
        38,
        38,
        38,
        38,
        38,
        38,
        38,
        38,
        38,
        38,
        38,
        71,
        72,
        73,
        38,
        38,
        38,
        38,
        38,
        38,
        38,
        38,
        38,
        38,
        38,
        38,
        38,
        38,
        38,
        38,
        38,
        38,
        38,
        38,
        38,
        38,
        38,
        38,
        38,
        38,
        38,
        38,
        38,
        38,
        38,
        38,
        38,
        38,
        38,
        38,
        38,
        38,
        38,
        38,
        38,
        38
      ],
      "height": 20,
      "name": "details",
      "opacity": 1,
      "type": "tilelayer",
      "visible": true,
      "width": 40,
      "x": 0,
      "y": 0
    },
    {
      "data": [
        0,
        0,
        0,
        0,
        0,
        0,
        0,
        0,
        0,
        0,
        0,
        0,
        0,
        0,
        0,
        0,
        0,
        0,
        0,
        0,
        0,
        0,
        0,
        0,
        0,
        0,
        0,
        0,
        0,
        0,
        0,
        0,
        0,
        0,
        0,
        0,
        0,
        0,
        0,
        0,
        514,
        514,
        514,
        514,
        514,
        514,
        514,
        514,
        514,
        514,
        514,
        514,
        514,
        514,
        514,
        514,
        514,
        514,
        514,
        514,
        514,
        514,
        514,
        514,
        514,
        514,
        514,
        514,
        514,
        514,
        514,
        514,
        514,
        514,
        514,
        514,
        514,
        514,
        514,
        514,
        514,
        0,
        0,
        0,
        0,
        0,
        0,
        0,
        0,
        0,
        0,
        0,
        0,
        0,
        0,
        0,
        0,
        0,
        0,
        0,
        0,
        0,
        0,
        0,
        0,
        0,
        0,
        0,
        0,
        0,
        0,
        0,
        0,
        0,
        0,
        0,
        0,
        0,
        0,
        514,
        514,
        0,
        0,
        0,
        0,
        0,
        0,
        0,
        0,
        0,
        0,
        0,
        0,
        0,
        0,
        0,
        0,
        0,
        0,
        0,
        0,
        0,
        0,
        0,
        0,
        0,
        0,
        0,
        0,
        0,
        0,
        0,
        0,
        0,
        0,
        0,
        0,
        0,
        0,
        514,
        514,
        0,
        0,
        0,
        0,
        0,
        0,
        0,
        0,
        0,
        0,
        0,
        0,
        0,
        0,
        0,
        0,
        0,
        0,
        0,
        0,
        0,
        0,
        0,
        0,
        0,
        0,
        0,
        0,
        0,
        0,
        0,
        0,
        0,
        0,
        0,
        0,
        0,
        0,
        514,
        514,
        0,
        0,
        0,
        0,
        0,
        0,
        0,
        0,
        0,
        0,
        0,
        0,
        0,
        0,
        0,
        0,
        0,
        0,
        0,
        0,
        0,
        0,
        0,
        0,
        0,
        0,
        0,
        0,
        0,
        0,
        0,
        0,
        0,
        0,
        0,
        0,
        0,
        0,
        514,
        514,
        0,
        0,
        0,
        0,
        0,
        0,
        0,
        0,
        0,
        0,
        0,
        0,
        0,
        0,
        0,
        0,
        0,
        0,
        0,
        0,
        0,
        0,
        0,
        0,
        0,
        0,
        0,
        0,
        0,
        0,
        0,
        0,
        0,
        0,
        0,
        0,
        0,
        0,
        514,
        514,
        0,
        0,
        0,
        0,
        0,
        0,
        0,
        0,
        0,
        0,
        0,
        0,
        0,
        0,
        0,
        0,
        0,
        0,
        0,
        0,
        0,
        0,
        0,
        0,
        0,
        0,
        0,
        0,
        0,
        0,
        0,
        0,
        0,
        0,
        0,
        0,
        0,
        0,
        514,
        514,
        514,
        514,
        514,
        514,
        514,
        514,
        514,
        514,
        514,
        514,
        514,
        514,
        514,
        514,
        514,
        514,
        514,
        514,
        514,
        514,
        514,
        514,
        514,
        514,
        514,
        514,
        514,
        514,
        514,
        514,
        514,
        514,
        514,
        514,
        0,
        0,
        0,
        514,
        514,
        0,
        0,
        0,
        0,
        0,
        0,
        0,
        0,
        0,
        0,
        0,
        0,
        0,
        0,
        0,
        0,
        0,
        0,
        0,
        0,
        0,
        0,
        0,
        0,
        0,
        0,
        0,
        0,
        0,
        0,
        0,
        0,
        0,
        0,
        514,
        0,
        0,
        0,
        514,
        0,
        0,
        0,
        0,
        0,
        0,
        0,
        0,
        0,
        0,
        0,
        0,
        0,
        0,
        0,
        0,
        0,
        0,
        0,
        0,
        0,
        0,
        0,
        0,
        0,
        0,
        0,
        0,
        0,
        0,
        0,
        0,
        0,
        0,
        0,
        514,
        0,
        0,
        0,
        514,
        0,
        514,
        514,
        514,
        514,
        514,
        514,
        514,
        514,
        514,
        514,
        514,
        514,
        514,
        514,
        514,
        514,
        514,
        514,
        514,
        514,
        514,
        514,
        514,
        514,
        514,
        514,
        514,
        514,
        514,
        514,
        514,
        514,
        514,
        0,
        514,
        0,
        0,
        0,
        514,
        0,
        514,
        0,
        0,
        0,
        0,
        0,
        0,
        0,
        0,
        0,
        0,
        0,
        0,
        0,
        0,
        0,
        0,
        0,
        0,
        0,
        0,
        0,
        0,
        0,
        0,
        0,
        0,
        0,
        0,
        0,
        0,
        0,
        514,
        0,
        514,
        0,
        0,
        0,
        514,
        0,
        514,
        0,
        0,
        0,
        0,
        0,
        0,
        0,
        0,
        0,
        0,
        0,
        0,
        0,
        0,
        0,
        0,
        0,
        0,
        0,
        0,
        0,
        0,
        0,
        0,
        0,
        0,
        0,
        0,
        0,
        0,
        0,
        514,
        0,
        514,
        0,
        0,
        0,
        514,
        0,
        514,
        0,
        0,
        0,
        0,
        0,
        0,
        0,
        0,
        0,
        0,
        0,
        0,
        0,
        0,
        0,
        0,
        0,
        0,
        0,
        0,
        0,
        0,
        0,
        0,
        0,
        0,
        0,
        0,
        0,
        0,
        0,
        514,
        514,
        514,
        0,
        0,
        0,
        514,
        0,
        514,
        0,
        0,
        0,
        0,
        0,
        0,
        0,
        0,
        0,
        0,
        0,
        0,
        0,
        0,
        0,
        0,
        0,
        0,
        0,
        0,
        0,
        0,
        0,
        0,
        0,
        0,
        0,
        0,
        0,
        0,
        0,
        0,
        0,
        0,
        0,
        0,
        0,
        514,
        0,
        514,
        0,
        0,
        0,
        0,
        0,
        0,
        0,
        0,
        0,
        0,
        0,
        0,
        0,
        0,
        0,
        0,
        0,
        0,
        0,
        0,
        0,
        0,
        0,
        0,
        0,
        0,
        0,
        0,
        0,
        0,
        0,
        0,
        0,
        0,
        0,
        0,
        0,
        514,
        0,
        514,
        0,
        0,
        0,
        0,
        0,
        0,
        0,
        0,
        0,
        0,
        0,
        0,
        0,
        0,
        0,
        0,
        0,
        0,
        0,
        0,
        0,
        0,
        0,
        0,
        0,
        0,
        0,
        0,
        0,
        0,
        0,
        0,
        0,
        0,
        0,
        0,
        0,
        514,
        0,
        514,
        514,
        514,
        514,
        514,
        514,
        514,
        514,
        514,
        514,
        514,
        514,
        514,
        514,
        514,
        514,
        514,
        514,
        514,
        514,
        514,
        514,
        514,
        514,
        514,
        514,
        514,
        514,
        514,
        514,
        514,
        514,
        514,
        514,
        514,
        0,
        0,
        0,
        514,
        0,
        0,
        0,
        0,
        0,
        0,
        0,
        0,
        0,
        0,
        0,
        0,
        0,
        0,
        0,
        0,
        0,
        0,
        0,
        0,
        0,
        0,
        0,
        0,
        0,
        0,
        0,
        0,
        0,
        0,
        0,
        0,
        0,
        0,
        0,
        514,
        514,
        514,
        514,
        514,
        0
      ],
      "height": 20,
      "name": "$solid",
      "opacity": 1,
      "type": "tilelayer",
      "visible": true,
      "width": 40,
      "x": 0,
      "y": 0
    },
    {
      "draworder": "topdown",
      "name": "object",
      "objects": [
        {
          "gid": 514,
          "height": 16,
          "id": 1,
          "name": "",
          "properties": {
            "scene": "ch1-r0"
          },
          "propertytypes": {
            "scene": "string"
          },
          "rotation": 0,
          "type": "Door",
          "visible": true,
          "width": 16,
          "x": 64,
          "y": 96
        },
        {
          "gid": 516,
          "height": 16,
          "id": 3,
          "name": "",
          "properties": {
            "color": "#ff0bff0b",
            "direction": 180
          },
          "propertytypes": {
            "color": "color",
            "direction": "int"
          },
          "rotation": 0,
          "type": "LightSpot",
          "visible": true,
          "width": 16,
          "x": 72,
          "y": 160.181818181818
        },
        {
          "gid": 515,
          "height": 16,
          "id": 5,
          "name": "",
          "rotation": 0,
          "type": "AlertLight",
          "visible": true,
          "width": 16,
          "x": 496,
          "y": 80
        },
        {
          "gid": 515,
          "height": 16,
          "id": 11,
          "name": "",
          "rotation": 0,
          "type": "AlertLight",
          "visible": true,
          "width": 16,
          "x": 176,
          "y": 80
        },
        {
          "gid": 515,
          "height": 16,
          "id": 14,
          "name": "",
          "properties": {
            "color": "#ff949494",
            "scale": 1
          },
          "propertytypes": {
            "color": "color",
            "scale": "int"
          },
          "rotation": 0,
          "type": "PointLight",
          "visible": true,
          "width": 16,
          "x": 232.25,
          "y": 232.5
        },
        {
          "gid": 514,
          "height": 16,
          "id": 19,
          "name": "",
          "properties": {
            "activator": "trigger01",
            "attach_activator": true,
            "path": 10,
            "time": 2
          },
          "propertytypes": {
            "activator": "string",
            "attach_activator": "bool",
            "path": "int",
            "time": "int"
          },
          "rotation": 0,
          "type": "Elevator",
          "visible": true,
          "width": 16,
          "x": 560,
          "y": 144
        },
        {
          "gid": 515,
          "height": 16,
          "id": 20,
          "name": "trigger01",
          "rotation": 0,
          "type": "Trigger",
          "visible": true,
          "width": 16,
          "x": 576,
          "y": 128
        },
        {
          "gid": 515,
          "height": 16,
          "id": 23,
          "name": "",
          "properties": {
            "color": "#ff578d58",
            "scale": 0.5
          },
          "propertytypes": {
            "color": "color",
            "scale": "float"
          },
          "rotation": 0,
          "type": "PointLight",
          "visible": true,
          "width": 16,
          "x": 238.5,
          "y": 278.75
        },
        {
          "gid": 515,
          "height": 16,
          "id": 25,
          "name": "",
          "properties": {
            "color": "#ff578d58",
            "scale": 0.5
          },
          "propertytypes": {
            "color": "color",
            "scale": "float"
          },
          "rotation": 0,
          "type": "PointLight",
          "visible": true,
          "width": 16,
          "x": 269.75,
          "y": 279
        },
        {
          "gid": 515,
          "height": 16,
          "id": 26,
          "name": "",
          "properties": {
            "color": "#ff949494",
            "scale": 1
          },
          "propertytypes": {
            "color": "color",
            "scale": "int"
          },
          "rotation": 0,
          "type": "PointLight",
          "visible": true,
          "width": 16,
          "x": 280,
          "y": 232.25
        },
        {
          "gid": 515,
          "height": 16,
          "id": 27,
          "name": "",
          "rotation": 0,
          "type": "AlertLight",
          "visible": true,
          "width": 16,
          "x": 176,
          "y": 240
        },
        {
          "gid": 515,
          "height": 16,
          "id": 28,
          "name": "",
          "rotation": 0,
          "type": "AlertLight",
          "visible": true,
          "width": 16,
          "x": 496,
          "y": 240
        },
        {
          "height": 48,
          "id": 29,
          "name": "",
          "properties": {
            "activator": "trigger01"
          },
          "propertytypes": {
            "activator": "string"
          },
          "rotation": 0,
          "type": "DoorBlock",
          "visible": true,
          "width": 16,
          "x": 544,
          "y": 240
        },
        {
          "height": 48,
          "id": 30,
          "name": "",
          "properties": {
            "activator": "trigger01",
            "inverted_signal": true
          },
          "propertytypes": {
            "activator": "string",
            "inverted_signal": "bool"
          },
          "rotation": 0,
          "type": "DoorBlock",
          "visible": true,
          "width": 16,
          "x": 544,
          "y": 80
        },
        {
          "height": 96,
          "id": 34,
          "name": "",
          "properties": {
            "script": "this.scene.explode01.explode()"
          },
          "propertytypes": {
            "script": "string"
          },
          "rotation": 0,
          "type": "TriggerBlock",
          "visible": true,
          "width": 64,
          "x": 416,
          "y": 32
        },
        {
          "height": 16,
          "id": 36,
          "name": "explode01",
          "rotation": 0,
          "type": "ExplosionArea",
          "visible": true,
          "width": 16,
          "x": 496,
          "y": 64
        },
        {
          "height": 32,
          "id": 38,
          "name": "",
          "properties": {
            "script": "this.scene.explode02.explode()"
          },
          "propertytypes": {
            "script": "string"
          },
          "rotation": 0,
          "type": "TriggerBlock",
          "visible": true,
          "width": 48,
          "x": 560,
          "y": 208
        },
        {
          "height": 16,
          "id": 40,
          "name": "explode02",
          "rotation": 0,
          "type": "ExplosionArea",
          "visible": true,
          "width": 16,
          "x": 576,
          "y": 160
        },
        {
          "gid": 514,
          "height": 16,
          "id": 41,
          "name": "",
          "properties": {
            "keycard": "Level 1",
            "locked": true,
            "scene": "ch1-r2"
          },
          "propertytypes": {
            "keycard": "string",
            "locked": "bool",
            "scene": "string"
          },
          "rotation": 0,
          "type": "Door",
          "visible": true,
          "width": 16,
          "x": 448,
          "y": 256
        },
        {
          "gid": 514,
          "height": 16,
          "id": 44,
          "name": "",
          "properties": {
            "keycard": "",
            "locked": false,
            "scene": "ch1-r1a"
          },
          "propertytypes": {
            "keycard": "string",
            "locked": "bool",
            "scene": "string"
          },
          "rotation": 0,
          "type": "Door",
          "visible": true,
          "width": 16,
          "x": 80,
          "y": 256
        },
        {
          "gid": 513,
          "height": 16,
          "id": 4,
          "name": "plr",
          "rotation": 0,
          "type": "Player",
          "visible": true,
          "width": 16,
          "x": 80,
          "y": 128
        },
        {
          "height": 16,
          "id": 46,
          "name": "",
          "properties": {
            "count": 7,
            "type": "Bottle"
          },
          "propertytypes": {
            "count": "int",
            "type": "string"
          },
          "rotation": 0,
          "type": "Spawner",
          "visible": true,
          "width": 144,
          "x": 192,
          "y": 272
        },
        {
          "height": 96,
          "id": 47,
          "name": "",
          "rotation": 0,
          "type": "BlockSeen",
          "visible": true,
          "width": 512,
          "x": 16,
          "y": 192
        },
        {
          "gid": 517,
          "height": 16,
          "id": 48,
          "name": "",
          "properties": {
            "color": "#ff667586",
            "scale": 2
          },
          "propertytypes": {
            "color": "color",
            "scale": "float"
          },
          "rotation": 0,
          "type": "PointLight",
          "visible": true,
          "width": 16,
          "x": 575.818181818182,
          "y": 89.8181818181818
        },
        {
          "gid": 517,
          "height": 16,
          "id": 49,
          "name": "",
          "properties": {
            "color": "#ff37383a",
            "scale": 4,
            "\u0421\u0438\u043d\u0438\u0439": 58
          },
          "propertytypes": {
            "color": "color",
            "scale": "float",
            "\u0421\u0438\u043d\u0438\u0439": "int"
          },
          "rotation": 0,
          "type": "PointLight",
          "visible": true,
          "width": 16,
          "x": 399.772545454545,
          "y": 201.590927272727
        },
        {
          "gid": 517,
          "height": 16,
          "id": 50,
          "name": "",
          "properties": {
            "color": "#ff37383a",
            "scale": 4,
            "\u0421\u0438\u043d\u0438\u0439": 58
          },
          "propertytypes": {
            "color": "color",
            "scale": "float",
            "\u0421\u0438\u043d\u0438\u0439": "int"
          },
          "rotation": 0,
          "type": "PointLight",
          "visible": true,
          "width": 16,
          "x": 95.9998181818182,
          "y": 201.636381818182
        },
        {
          "gid": 517,
          "height": 16,
          "id": 51,
          "name": "",
          "properties": {
            "color": "#ff37383a",
            "scale": 4,
            "\u0421\u0438\u043d\u0438\u0439": 58
          },
          "propertytypes": {
            "color": "color",
            "scale": "float",
            "\u0421\u0438\u043d\u0438\u0439": "int"
          },
          "rotation": 0,
          "type": "PointLight",
          "visible": true,
          "width": 16,
          "x": 96.1816363636363,
          "y": 41.0909272727273
        },
        {
          "gid": 517,
          "height": 16,
          "id": 52,
          "name": "",
          "properties": {
            "color": "#ff37383a",
            "scale": 4,
            "\u0421\u0438\u043d\u0438\u0439": 58
          },
          "propertytypes": {
            "color": "color",
            "scale": "float",
            "\u0421\u0438\u043d\u0438\u0439": "int"
          },
          "rotation": 0,
          "type": "PointLight",
          "visible": true,
          "width": 16,
          "x": 327.818,
          "y": 41.4432
        }
      ],
      "opacity": 1,
      "type": "objectgroup",
      "visible": true,
      "x": 0,
      "y": 0
    }
  ],
  "nextobjectid": 53,
  "orientation": "orthogonal",
  "renderorder": "right-down",
  "tiledversion": "1.1.1",
  "tileheight": 16,
  "tilesets": [
    {
      "columns": 16,
      "firstgid": 1,
      "image": "../gfx/chapter1.png",
      "imageheight": 512,
      "imagewidth": 256,
      "margin": 0,
      "name": "chapter1",
      "spacing": 0,
      "tilecount": 512,
      "tileheight": 16,
      "tilewidth": 16
    },
    {
      "columns": 4,
      "firstgid": 513,
      "image": "../gfx/toolbox.png",
      "imageheight": 64,
      "imagewidth": 64,
      "margin": 0,
      "name": "toolbox",
      "spacing": 0,
      "tilecount": 16,
      "tileheight": 16,
      "tilewidth": 16
    }
  ],
  "tilewidth": 16,
  "type": "map",
  "version": 1,
  "width": 40
}
